ISO-10303-21;
HEADER;
FILE_DESCRIPTION(('FreeCAD Model'),'2;1');
FILE_NAME(
  '/home/void/Repository/KiCAD/libs/_bhdt.pretty/3d_models/BMP280.step',
  '2018-09-11T23:18:17',('Author'),(''),
  'Open CASCADE STEP processor 7.3','FreeCAD','Unknown');
FILE_SCHEMA(('AUTOMOTIVE_DESIGN { 1 0 10303 214 1 1 1 1 }'));
ENDSEC;
DATA;
#1 = APPLICATION_PROTOCOL_DEFINITION('international standard',
  'automotive_design',2000,#2);
#2 = APPLICATION_CONTEXT(
  'core data for automotive mechanical design processes');
#3 = SHAPE_DEFINITION_REPRESENTATION(#4,#10);
#4 = PRODUCT_DEFINITION_SHAPE('','',#5);
#5 = PRODUCT_DEFINITION('design','',#6,#9);
#6 = PRODUCT_DEFINITION_FORMATION('','',#7);
#7 = PRODUCT('Fusion','Fusion','',(#8));
#8 = PRODUCT_CONTEXT('',#2,'mechanical');
#9 = PRODUCT_DEFINITION_CONTEXT('part definition',#2,'design');
#10 = ADVANCED_BREP_SHAPE_REPRESENTATION('',(#11,#15),#860);
#11 = AXIS2_PLACEMENT_3D('',#12,#13,#14);
#12 = CARTESIAN_POINT('',(0.,0.,0.));
#13 = DIRECTION('',(0.,0.,1.));
#14 = DIRECTION('',(1.,0.,-0.));
#15 = MANIFOLD_SOLID_BREP('',#16);
#16 = CLOSED_SHELL('',(#17,#50,#93,#102,#135,#168,#201,#234,#265,#282,
    #299,#316,#347,#378,#395,#426,#444,#477,#495,#513,#546,#579,#597,
    #630,#648,#666,#728,#740,#752,#783,#807,#831,#848));
#17 = ADVANCED_FACE('',(#18),#45,.T.);
#18 = FACE_BOUND('',#19,.T.);
#19 = EDGE_LOOP('',(#20,#30,#37,#38));
#20 = ORIENTED_EDGE('',*,*,#21,.T.);
#21 = EDGE_CURVE('',#22,#24,#26,.T.);
#22 = VERTEX_POINT('',#23);
#23 = CARTESIAN_POINT('',(-0.41,0.31,0.95));
#24 = VERTEX_POINT('',#25);
#25 = CARTESIAN_POINT('',(-0.41,0.31,0.96));
#26 = LINE('',#27,#28);
#27 = CARTESIAN_POINT('',(-0.41,0.31,0.91));
#28 = VECTOR('',#29,1.);
#29 = DIRECTION('',(0.,0.,1.));
#30 = ORIENTED_EDGE('',*,*,#31,.F.);
#31 = EDGE_CURVE('',#24,#24,#32,.T.);
#32 = CIRCLE('',#33,0.15);
#33 = AXIS2_PLACEMENT_3D('',#34,#35,#36);
#34 = CARTESIAN_POINT('',(-0.56,0.31,0.96));
#35 = DIRECTION('',(0.,0.,1.));
#36 = DIRECTION('',(1.,0.,0.));
#37 = ORIENTED_EDGE('',*,*,#21,.F.);
#38 = ORIENTED_EDGE('',*,*,#39,.T.);
#39 = EDGE_CURVE('',#22,#22,#40,.T.);
#40 = CIRCLE('',#41,0.15);
#41 = AXIS2_PLACEMENT_3D('',#42,#43,#44);
#42 = CARTESIAN_POINT('',(-0.56,0.31,0.95));
#43 = DIRECTION('',(0.,0.,1.));
#44 = DIRECTION('',(1.,0.,0.));
#45 = CYLINDRICAL_SURFACE('',#46,0.15);
#46 = AXIS2_PLACEMENT_3D('',#47,#48,#49);
#47 = CARTESIAN_POINT('',(-0.56,0.31,0.91));
#48 = DIRECTION('',(0.,0.,1.));
#49 = DIRECTION('',(1.,0.,0.));
#50 = ADVANCED_FACE('',(#51,#85),#88,.F.);
#51 = FACE_BOUND('',#52,.F.);
#52 = EDGE_LOOP('',(#53,#63,#71,#79));
#53 = ORIENTED_EDGE('',*,*,#54,.T.);
#54 = EDGE_CURVE('',#55,#57,#59,.T.);
#55 = VERTEX_POINT('',#56);
#56 = CARTESIAN_POINT('',(0.85,0.6,0.95));
#57 = VERTEX_POINT('',#58);
#58 = CARTESIAN_POINT('',(0.85,-0.6,0.95));
#59 = LINE('',#60,#61);
#60 = CARTESIAN_POINT('',(0.85,0.75,0.95));
#61 = VECTOR('',#62,1.);
#62 = DIRECTION('',(0.,-1.,0.));
#63 = ORIENTED_EDGE('',*,*,#64,.T.);
#64 = EDGE_CURVE('',#57,#65,#67,.T.);
#65 = VERTEX_POINT('',#66);
#66 = CARTESIAN_POINT('',(-0.85,-0.6,0.95));
#67 = LINE('',#68,#69);
#68 = CARTESIAN_POINT('',(1.,-0.6,0.95));
#69 = VECTOR('',#70,1.);
#70 = DIRECTION('',(-1.,0.,0.));
#71 = ORIENTED_EDGE('',*,*,#72,.T.);
#72 = EDGE_CURVE('',#65,#73,#75,.T.);
#73 = VERTEX_POINT('',#74);
#74 = CARTESIAN_POINT('',(-0.85,0.6,0.95));
#75 = LINE('',#76,#77);
#76 = CARTESIAN_POINT('',(-0.85,-0.75,0.95));
#77 = VECTOR('',#78,1.);
#78 = DIRECTION('',(0.,1.,0.));
#79 = ORIENTED_EDGE('',*,*,#80,.T.);
#80 = EDGE_CURVE('',#73,#55,#81,.T.);
#81 = LINE('',#82,#83);
#82 = CARTESIAN_POINT('',(-1.,0.6,0.95));
#83 = VECTOR('',#84,1.);
#84 = DIRECTION('',(1.,0.,0.));
#85 = FACE_BOUND('',#86,.F.);
#86 = EDGE_LOOP('',(#87));
#87 = ORIENTED_EDGE('',*,*,#39,.T.);
#88 = PLANE('',#89);
#89 = AXIS2_PLACEMENT_3D('',#90,#91,#92);
#90 = CARTESIAN_POINT('',(0.,0.,0.95));
#91 = DIRECTION('',(-0.,-0.,-1.));
#92 = DIRECTION('',(-1.,0.,0.));
#93 = ADVANCED_FACE('',(#94),#97,.T.);
#94 = FACE_BOUND('',#95,.T.);
#95 = EDGE_LOOP('',(#96));
#96 = ORIENTED_EDGE('',*,*,#31,.T.);
#97 = PLANE('',#98);
#98 = AXIS2_PLACEMENT_3D('',#99,#100,#101);
#99 = CARTESIAN_POINT('',(-0.56,0.31,0.96));
#100 = DIRECTION('',(0.,0.,1.));
#101 = DIRECTION('',(1.,0.,0.));
#102 = ADVANCED_FACE('',(#103),#130,.T.);
#103 = FACE_BOUND('',#104,.T.);
#104 = EDGE_LOOP('',(#105,#115,#122,#123));
#105 = ORIENTED_EDGE('',*,*,#106,.F.);
#106 = EDGE_CURVE('',#107,#109,#111,.T.);
#107 = VERTEX_POINT('',#108);
#108 = CARTESIAN_POINT('',(1.,0.6,0.8));
#109 = VERTEX_POINT('',#110);
#110 = CARTESIAN_POINT('',(1.,-0.6,0.8));
#111 = LINE('',#112,#113);
#112 = CARTESIAN_POINT('',(1.,0.75,0.8));
#113 = VECTOR('',#114,1.);
#114 = DIRECTION('',(0.,-1.,0.));
#115 = ORIENTED_EDGE('',*,*,#116,.F.);
#116 = EDGE_CURVE('',#55,#107,#117,.T.);
#117 = CIRCLE('',#118,0.15);
#118 = AXIS2_PLACEMENT_3D('',#119,#120,#121);
#119 = CARTESIAN_POINT('',(0.85,0.6,0.8));
#120 = DIRECTION('',(0.,1.,0.));
#121 = DIRECTION('',(0.,0.,1.));
#122 = ORIENTED_EDGE('',*,*,#54,.T.);
#123 = ORIENTED_EDGE('',*,*,#124,.T.);
#124 = EDGE_CURVE('',#57,#109,#125,.T.);
#125 = CIRCLE('',#126,0.15);
#126 = AXIS2_PLACEMENT_3D('',#127,#128,#129);
#127 = CARTESIAN_POINT('',(0.85,-0.6,0.8));
#128 = DIRECTION('',(-0.,1.,0.));
#129 = DIRECTION('',(1.,0.,0.));
#130 = CYLINDRICAL_SURFACE('',#131,0.15);
#131 = AXIS2_PLACEMENT_3D('',#132,#133,#134);
#132 = CARTESIAN_POINT('',(0.85,0.75,0.8));
#133 = DIRECTION('',(0.,-1.,0.));
#134 = DIRECTION('',(1.,0.,0.));
#135 = ADVANCED_FACE('',(#136),#163,.T.);
#136 = FACE_BOUND('',#137,.T.);
#137 = EDGE_LOOP('',(#138,#147,#148,#157));
#138 = ORIENTED_EDGE('',*,*,#139,.T.);
#139 = EDGE_CURVE('',#140,#73,#142,.T.);
#140 = VERTEX_POINT('',#141);
#141 = CARTESIAN_POINT('',(-0.85,0.75,0.8));
#142 = CIRCLE('',#143,0.15);
#143 = AXIS2_PLACEMENT_3D('',#144,#145,#146);
#144 = CARTESIAN_POINT('',(-0.85,0.6,0.8));
#145 = DIRECTION('',(1.,0.,7.273661547325E-16));
#146 = DIRECTION('',(-7.273661547325E-16,0.,1.));
#147 = ORIENTED_EDGE('',*,*,#80,.T.);
#148 = ORIENTED_EDGE('',*,*,#149,.F.);
#149 = EDGE_CURVE('',#150,#55,#152,.T.);
#150 = VERTEX_POINT('',#151);
#151 = CARTESIAN_POINT('',(0.85,0.75,0.8));
#152 = CIRCLE('',#153,0.15);
#153 = AXIS2_PLACEMENT_3D('',#154,#155,#156);
#154 = CARTESIAN_POINT('',(0.85,0.6,0.8));
#155 = DIRECTION('',(1.,0.,-0.));
#156 = DIRECTION('',(0.,0.,1.));
#157 = ORIENTED_EDGE('',*,*,#158,.F.);
#158 = EDGE_CURVE('',#140,#150,#159,.T.);
#159 = LINE('',#160,#161);
#160 = CARTESIAN_POINT('',(-1.,0.75,0.8));
#161 = VECTOR('',#162,1.);
#162 = DIRECTION('',(1.,0.,0.));
#163 = CYLINDRICAL_SURFACE('',#164,0.15);
#164 = AXIS2_PLACEMENT_3D('',#165,#166,#167);
#165 = CARTESIAN_POINT('',(-1.,0.6,0.8));
#166 = DIRECTION('',(1.,0.,0.));
#167 = DIRECTION('',(0.,1.,0.));
#168 = ADVANCED_FACE('',(#169),#196,.T.);
#169 = FACE_BOUND('',#170,.T.);
#170 = EDGE_LOOP('',(#171,#180,#181,#190));
#171 = ORIENTED_EDGE('',*,*,#172,.F.);
#172 = EDGE_CURVE('',#57,#173,#175,.T.);
#173 = VERTEX_POINT('',#174);
#174 = CARTESIAN_POINT('',(0.85,-0.75,0.8));
#175 = CIRCLE('',#176,0.15);
#176 = AXIS2_PLACEMENT_3D('',#177,#178,#179);
#177 = CARTESIAN_POINT('',(0.85,-0.6,0.8));
#178 = DIRECTION('',(1.,7.273661547325E-16,0.));
#179 = DIRECTION('',(7.273661547325E-16,-1.,0.));
#180 = ORIENTED_EDGE('',*,*,#64,.T.);
#181 = ORIENTED_EDGE('',*,*,#182,.F.);
#182 = EDGE_CURVE('',#183,#65,#185,.T.);
#183 = VERTEX_POINT('',#184);
#184 = CARTESIAN_POINT('',(-0.85,-0.75,0.8));
#185 = CIRCLE('',#186,0.15);
#186 = AXIS2_PLACEMENT_3D('',#187,#188,#189);
#187 = CARTESIAN_POINT('',(-0.85,-0.6,0.8));
#188 = DIRECTION('',(-1.,0.,0.));
#189 = DIRECTION('',(0.,-1.,0.));
#190 = ORIENTED_EDGE('',*,*,#191,.F.);
#191 = EDGE_CURVE('',#173,#183,#192,.T.);
#192 = LINE('',#193,#194);
#193 = CARTESIAN_POINT('',(1.,-0.75,0.8));
#194 = VECTOR('',#195,1.);
#195 = DIRECTION('',(-1.,0.,0.));
#196 = CYLINDRICAL_SURFACE('',#197,0.15);
#197 = AXIS2_PLACEMENT_3D('',#198,#199,#200);
#198 = CARTESIAN_POINT('',(1.,-0.6,0.8));
#199 = DIRECTION('',(-1.,0.,0.));
#200 = DIRECTION('',(0.,-1.,0.));
#201 = ADVANCED_FACE('',(#202),#229,.T.);
#202 = FACE_BOUND('',#203,.T.);
#203 = EDGE_LOOP('',(#204,#213,#214,#223));
#204 = ORIENTED_EDGE('',*,*,#205,.T.);
#205 = EDGE_CURVE('',#206,#65,#208,.T.);
#206 = VERTEX_POINT('',#207);
#207 = CARTESIAN_POINT('',(-1.,-0.6,0.8));
#208 = CIRCLE('',#209,0.15);
#209 = AXIS2_PLACEMENT_3D('',#210,#211,#212);
#210 = CARTESIAN_POINT('',(-0.85,-0.6,0.8));
#211 = DIRECTION('',(-0.,1.,6.123233995737E-17));
#212 = DIRECTION('',(0.,-6.123233995737E-17,1.));
#213 = ORIENTED_EDGE('',*,*,#72,.T.);
#214 = ORIENTED_EDGE('',*,*,#215,.F.);
#215 = EDGE_CURVE('',#216,#73,#218,.T.);
#216 = VERTEX_POINT('',#217);
#217 = CARTESIAN_POINT('',(-1.,0.6,0.8));
#218 = CIRCLE('',#219,0.15);
#219 = AXIS2_PLACEMENT_3D('',#220,#221,#222);
#220 = CARTESIAN_POINT('',(-0.85,0.6,0.8));
#221 = DIRECTION('',(0.,1.,-0.));
#222 = DIRECTION('',(-1.,0.,0.));
#223 = ORIENTED_EDGE('',*,*,#224,.F.);
#224 = EDGE_CURVE('',#206,#216,#225,.T.);
#225 = LINE('',#226,#227);
#226 = CARTESIAN_POINT('',(-1.,-0.75,0.8));
#227 = VECTOR('',#228,1.);
#228 = DIRECTION('',(0.,1.,0.));
#229 = CYLINDRICAL_SURFACE('',#230,0.15);
#230 = AXIS2_PLACEMENT_3D('',#231,#232,#233);
#231 = CARTESIAN_POINT('',(-0.85,-0.75,0.8));
#232 = DIRECTION('',(0.,1.,0.));
#233 = DIRECTION('',(-1.,0.,0.));
#234 = ADVANCED_FACE('',(#235),#260,.T.);
#235 = FACE_BOUND('',#236,.T.);
#236 = EDGE_LOOP('',(#237,#245,#253,#259));
#237 = ORIENTED_EDGE('',*,*,#238,.F.);
#238 = EDGE_CURVE('',#239,#109,#241,.T.);
#239 = VERTEX_POINT('',#240);
#240 = CARTESIAN_POINT('',(1.,-0.6,0.28));
#241 = LINE('',#242,#243);
#242 = CARTESIAN_POINT('',(1.,-0.6,0.13));
#243 = VECTOR('',#244,1.);
#244 = DIRECTION('',(0.,0.,1.));
#245 = ORIENTED_EDGE('',*,*,#246,.F.);
#246 = EDGE_CURVE('',#247,#239,#249,.T.);
#247 = VERTEX_POINT('',#248);
#248 = CARTESIAN_POINT('',(1.,0.6,0.28));
#249 = LINE('',#250,#251);
#250 = CARTESIAN_POINT('',(1.,0.75,0.28));
#251 = VECTOR('',#252,1.);
#252 = DIRECTION('',(0.,-1.,0.));
#253 = ORIENTED_EDGE('',*,*,#254,.T.);
#254 = EDGE_CURVE('',#247,#107,#255,.T.);
#255 = LINE('',#256,#257);
#256 = CARTESIAN_POINT('',(1.,0.6,0.13));
#257 = VECTOR('',#258,1.);
#258 = DIRECTION('',(0.,0.,1.));
#259 = ORIENTED_EDGE('',*,*,#106,.T.);
#260 = PLANE('',#261);
#261 = AXIS2_PLACEMENT_3D('',#262,#263,#264);
#262 = CARTESIAN_POINT('',(1.,0.75,0.13));
#263 = DIRECTION('',(1.,0.,0.));
#264 = DIRECTION('',(0.,-1.,0.));
#265 = ADVANCED_FACE('',(#266),#277,.T.);
#266 = FACE_BOUND('',#267,.F.);
#267 = EDGE_LOOP('',(#268,#269,#276));
#268 = ORIENTED_EDGE('',*,*,#149,.F.);
#269 = ORIENTED_EDGE('',*,*,#270,.T.);
#270 = EDGE_CURVE('',#150,#107,#271,.T.);
#271 = CIRCLE('',#272,0.15);
#272 = AXIS2_PLACEMENT_3D('',#273,#274,#275);
#273 = CARTESIAN_POINT('',(0.85,0.6,0.8));
#274 = DIRECTION('',(6.123233995737E-17,0.,-1.));
#275 = DIRECTION('',(1.,0.,6.123233995737E-17));
#276 = ORIENTED_EDGE('',*,*,#116,.F.);
#277 = SPHERICAL_SURFACE('',#278,0.15);
#278 = AXIS2_PLACEMENT_3D('',#279,#280,#281);
#279 = CARTESIAN_POINT('',(0.85,0.6,0.8));
#280 = DIRECTION('',(0.,-1.,0.));
#281 = DIRECTION('',(0.,0.,1.));
#282 = ADVANCED_FACE('',(#283),#294,.T.);
#283 = FACE_BOUND('',#284,.T.);
#284 = EDGE_LOOP('',(#285,#286,#287));
#285 = ORIENTED_EDGE('',*,*,#124,.F.);
#286 = ORIENTED_EDGE('',*,*,#172,.T.);
#287 = ORIENTED_EDGE('',*,*,#288,.F.);
#288 = EDGE_CURVE('',#109,#173,#289,.T.);
#289 = CIRCLE('',#290,0.15);
#290 = AXIS2_PLACEMENT_3D('',#291,#292,#293);
#291 = CARTESIAN_POINT('',(0.85,-0.6,0.8));
#292 = DIRECTION('',(0.,0.,-1.));
#293 = DIRECTION('',(1.,0.,0.));
#294 = SPHERICAL_SURFACE('',#295,0.15);
#295 = AXIS2_PLACEMENT_3D('',#296,#297,#298);
#296 = CARTESIAN_POINT('',(0.85,-0.6,0.8));
#297 = DIRECTION('',(0.,0.,-1.));
#298 = DIRECTION('',(1.,0.,0.));
#299 = ADVANCED_FACE('',(#300),#311,.T.);
#300 = FACE_BOUND('',#301,.F.);
#301 = EDGE_LOOP('',(#302,#309,#310));
#302 = ORIENTED_EDGE('',*,*,#303,.F.);
#303 = EDGE_CURVE('',#140,#216,#304,.T.);
#304 = CIRCLE('',#305,0.15);
#305 = AXIS2_PLACEMENT_3D('',#306,#307,#308);
#306 = CARTESIAN_POINT('',(-0.85,0.6,0.8));
#307 = DIRECTION('',(0.,0.,1.));
#308 = DIRECTION('',(-1.,0.,0.));
#309 = ORIENTED_EDGE('',*,*,#139,.T.);
#310 = ORIENTED_EDGE('',*,*,#215,.F.);
#311 = SPHERICAL_SURFACE('',#312,0.15);
#312 = AXIS2_PLACEMENT_3D('',#313,#314,#315);
#313 = CARTESIAN_POINT('',(-0.85,0.6,0.8));
#314 = DIRECTION('',(0.,-1.,0.));
#315 = DIRECTION('',(-1.,0.,0.));
#316 = ADVANCED_FACE('',(#317),#342,.T.);
#317 = FACE_BOUND('',#318,.T.);
#318 = EDGE_LOOP('',(#319,#327,#328,#336));
#319 = ORIENTED_EDGE('',*,*,#320,.T.);
#320 = EDGE_CURVE('',#321,#140,#323,.T.);
#321 = VERTEX_POINT('',#322);
#322 = CARTESIAN_POINT('',(-0.85,0.75,0.28));
#323 = LINE('',#324,#325);
#324 = CARTESIAN_POINT('',(-0.85,0.75,0.13));
#325 = VECTOR('',#326,1.);
#326 = DIRECTION('',(0.,0.,1.));
#327 = ORIENTED_EDGE('',*,*,#158,.T.);
#328 = ORIENTED_EDGE('',*,*,#329,.F.);
#329 = EDGE_CURVE('',#330,#150,#332,.T.);
#330 = VERTEX_POINT('',#331);
#331 = CARTESIAN_POINT('',(0.85,0.75,0.28));
#332 = LINE('',#333,#334);
#333 = CARTESIAN_POINT('',(0.85,0.75,0.13));
#334 = VECTOR('',#335,1.);
#335 = DIRECTION('',(0.,0.,1.));
#336 = ORIENTED_EDGE('',*,*,#337,.F.);
#337 = EDGE_CURVE('',#321,#330,#338,.T.);
#338 = LINE('',#339,#340);
#339 = CARTESIAN_POINT('',(-1.,0.75,0.28));
#340 = VECTOR('',#341,1.);
#341 = DIRECTION('',(1.,0.,0.));
#342 = PLANE('',#343);
#343 = AXIS2_PLACEMENT_3D('',#344,#345,#346);
#344 = CARTESIAN_POINT('',(-1.,0.75,0.13));
#345 = DIRECTION('',(0.,1.,0.));
#346 = DIRECTION('',(1.,0.,0.));
#347 = ADVANCED_FACE('',(#348),#373,.T.);
#348 = FACE_BOUND('',#349,.T.);
#349 = EDGE_LOOP('',(#350,#358,#359,#367));
#350 = ORIENTED_EDGE('',*,*,#351,.T.);
#351 = EDGE_CURVE('',#352,#173,#354,.T.);
#352 = VERTEX_POINT('',#353);
#353 = CARTESIAN_POINT('',(0.85,-0.75,0.28));
#354 = LINE('',#355,#356);
#355 = CARTESIAN_POINT('',(0.85,-0.75,0.13));
#356 = VECTOR('',#357,1.);
#357 = DIRECTION('',(0.,0.,1.));
#358 = ORIENTED_EDGE('',*,*,#191,.T.);
#359 = ORIENTED_EDGE('',*,*,#360,.F.);
#360 = EDGE_CURVE('',#361,#183,#363,.T.);
#361 = VERTEX_POINT('',#362);
#362 = CARTESIAN_POINT('',(-0.85,-0.75,0.28));
#363 = LINE('',#364,#365);
#364 = CARTESIAN_POINT('',(-0.85,-0.75,0.13));
#365 = VECTOR('',#366,1.);
#366 = DIRECTION('',(0.,0.,1.));
#367 = ORIENTED_EDGE('',*,*,#368,.F.);
#368 = EDGE_CURVE('',#352,#361,#369,.T.);
#369 = LINE('',#370,#371);
#370 = CARTESIAN_POINT('',(1.,-0.75,0.28));
#371 = VECTOR('',#372,1.);
#372 = DIRECTION('',(-1.,0.,0.));
#373 = PLANE('',#374);
#374 = AXIS2_PLACEMENT_3D('',#375,#376,#377);
#375 = CARTESIAN_POINT('',(1.,-0.75,0.13));
#376 = DIRECTION('',(0.,-1.,0.));
#377 = DIRECTION('',(-1.,0.,0.));
#378 = ADVANCED_FACE('',(#379),#390,.T.);
#379 = FACE_BOUND('',#380,.F.);
#380 = EDGE_LOOP('',(#381,#388,#389));
#381 = ORIENTED_EDGE('',*,*,#382,.F.);
#382 = EDGE_CURVE('',#206,#183,#383,.T.);
#383 = CIRCLE('',#384,0.15);
#384 = AXIS2_PLACEMENT_3D('',#385,#386,#387);
#385 = CARTESIAN_POINT('',(-0.85,-0.6,0.8));
#386 = DIRECTION('',(-0.,0.,1.));
#387 = DIRECTION('',(0.,-1.,0.));
#388 = ORIENTED_EDGE('',*,*,#205,.T.);
#389 = ORIENTED_EDGE('',*,*,#182,.F.);
#390 = SPHERICAL_SURFACE('',#391,0.15);
#391 = AXIS2_PLACEMENT_3D('',#392,#393,#394);
#392 = CARTESIAN_POINT('',(-0.85,-0.6,0.8));
#393 = DIRECTION('',(1.,0.,0.));
#394 = DIRECTION('',(0.,-1.,0.));
#395 = ADVANCED_FACE('',(#396),#421,.T.);
#396 = FACE_BOUND('',#397,.T.);
#397 = EDGE_LOOP('',(#398,#406,#407,#415));
#398 = ORIENTED_EDGE('',*,*,#399,.T.);
#399 = EDGE_CURVE('',#400,#206,#402,.T.);
#400 = VERTEX_POINT('',#401);
#401 = CARTESIAN_POINT('',(-1.,-0.6,0.28));
#402 = LINE('',#403,#404);
#403 = CARTESIAN_POINT('',(-1.,-0.6,0.13));
#404 = VECTOR('',#405,1.);
#405 = DIRECTION('',(0.,0.,1.));
#406 = ORIENTED_EDGE('',*,*,#224,.T.);
#407 = ORIENTED_EDGE('',*,*,#408,.F.);
#408 = EDGE_CURVE('',#409,#216,#411,.T.);
#409 = VERTEX_POINT('',#410);
#410 = CARTESIAN_POINT('',(-1.,0.6,0.28));
#411 = LINE('',#412,#413);
#412 = CARTESIAN_POINT('',(-1.,0.6,0.13));
#413 = VECTOR('',#414,1.);
#414 = DIRECTION('',(0.,0.,1.));
#415 = ORIENTED_EDGE('',*,*,#416,.F.);
#416 = EDGE_CURVE('',#400,#409,#417,.T.);
#417 = LINE('',#418,#419);
#418 = CARTESIAN_POINT('',(-1.,-0.75,0.28));
#419 = VECTOR('',#420,1.);
#420 = DIRECTION('',(0.,1.,0.));
#421 = PLANE('',#422);
#422 = AXIS2_PLACEMENT_3D('',#423,#424,#425);
#423 = CARTESIAN_POINT('',(-1.,-0.75,0.13));
#424 = DIRECTION('',(-1.,0.,0.));
#425 = DIRECTION('',(0.,1.,0.));
#426 = ADVANCED_FACE('',(#427),#439,.T.);
#427 = FACE_BOUND('',#428,.F.);
#428 = EDGE_LOOP('',(#429,#430,#437,#438));
#429 = ORIENTED_EDGE('',*,*,#238,.F.);
#430 = ORIENTED_EDGE('',*,*,#431,.F.);
#431 = EDGE_CURVE('',#352,#239,#432,.T.);
#432 = CIRCLE('',#433,0.15);
#433 = AXIS2_PLACEMENT_3D('',#434,#435,#436);
#434 = CARTESIAN_POINT('',(0.85,-0.6,0.28));
#435 = DIRECTION('',(-0.,0.,1.));
#436 = DIRECTION('',(0.,-1.,0.));
#437 = ORIENTED_EDGE('',*,*,#351,.T.);
#438 = ORIENTED_EDGE('',*,*,#288,.F.);
#439 = CYLINDRICAL_SURFACE('',#440,0.15);
#440 = AXIS2_PLACEMENT_3D('',#441,#442,#443);
#441 = CARTESIAN_POINT('',(0.85,-0.6,0.13));
#442 = DIRECTION('',(0.,0.,1.));
#443 = DIRECTION('',(1.,0.,0.));
#444 = ADVANCED_FACE('',(#445),#472,.F.);
#445 = FACE_BOUND('',#446,.T.);
#446 = EDGE_LOOP('',(#447,#456,#457,#466));
#447 = ORIENTED_EDGE('',*,*,#448,.T.);
#448 = EDGE_CURVE('',#449,#247,#451,.T.);
#449 = VERTEX_POINT('',#450);
#450 = CARTESIAN_POINT('',(1.15,0.6,0.13));
#451 = CIRCLE('',#452,0.15);
#452 = AXIS2_PLACEMENT_3D('',#453,#454,#455);
#453 = CARTESIAN_POINT('',(1.15,0.6,0.28));
#454 = DIRECTION('',(-0.,1.,0.));
#455 = DIRECTION('',(1.,0.,0.));
#456 = ORIENTED_EDGE('',*,*,#246,.T.);
#457 = ORIENTED_EDGE('',*,*,#458,.F.);
#458 = EDGE_CURVE('',#459,#239,#461,.T.);
#459 = VERTEX_POINT('',#460);
#460 = CARTESIAN_POINT('',(1.15,-0.6,0.13));
#461 = CIRCLE('',#462,0.15);
#462 = AXIS2_PLACEMENT_3D('',#463,#464,#465);
#463 = CARTESIAN_POINT('',(1.15,-0.6,0.28));
#464 = DIRECTION('',(6.123233995737E-17,1.,0.));
#465 = DIRECTION('',(1.,-6.123233995737E-17,0.));
#466 = ORIENTED_EDGE('',*,*,#467,.F.);
#467 = EDGE_CURVE('',#449,#459,#468,.T.);
#468 = LINE('',#469,#470);
#469 = CARTESIAN_POINT('',(1.15,0.75,0.13));
#470 = VECTOR('',#471,1.);
#471 = DIRECTION('',(0.,-1.,0.));
#472 = CYLINDRICAL_SURFACE('',#473,0.15);
#473 = AXIS2_PLACEMENT_3D('',#474,#475,#476);
#474 = CARTESIAN_POINT('',(1.15,0.75,0.28));
#475 = DIRECTION('',(0.,-1.,0.));
#476 = DIRECTION('',(0.,0.,-1.));
#477 = ADVANCED_FACE('',(#478),#490,.T.);
#478 = FACE_BOUND('',#479,.F.);
#479 = EDGE_LOOP('',(#480,#481,#488,#489));
#480 = ORIENTED_EDGE('',*,*,#329,.F.);
#481 = ORIENTED_EDGE('',*,*,#482,.F.);
#482 = EDGE_CURVE('',#247,#330,#483,.T.);
#483 = CIRCLE('',#484,0.15);
#484 = AXIS2_PLACEMENT_3D('',#485,#486,#487);
#485 = CARTESIAN_POINT('',(0.85,0.6,0.28));
#486 = DIRECTION('',(0.,0.,1.));
#487 = DIRECTION('',(1.,0.,0.));
#488 = ORIENTED_EDGE('',*,*,#254,.T.);
#489 = ORIENTED_EDGE('',*,*,#270,.F.);
#490 = CYLINDRICAL_SURFACE('',#491,0.15);
#491 = AXIS2_PLACEMENT_3D('',#492,#493,#494);
#492 = CARTESIAN_POINT('',(0.85,0.6,0.13));
#493 = DIRECTION('',(0.,0.,1.));
#494 = DIRECTION('',(0.,1.,0.));
#495 = ADVANCED_FACE('',(#496),#508,.T.);
#496 = FACE_BOUND('',#497,.T.);
#497 = EDGE_LOOP('',(#498,#499,#506,#507));
#498 = ORIENTED_EDGE('',*,*,#320,.F.);
#499 = ORIENTED_EDGE('',*,*,#500,.T.);
#500 = EDGE_CURVE('',#321,#409,#501,.T.);
#501 = CIRCLE('',#502,0.15);
#502 = AXIS2_PLACEMENT_3D('',#503,#504,#505);
#503 = CARTESIAN_POINT('',(-0.85,0.6,0.28));
#504 = DIRECTION('',(0.,-0.,1.));
#505 = DIRECTION('',(0.,1.,0.));
#506 = ORIENTED_EDGE('',*,*,#408,.T.);
#507 = ORIENTED_EDGE('',*,*,#303,.F.);
#508 = CYLINDRICAL_SURFACE('',#509,0.15);
#509 = AXIS2_PLACEMENT_3D('',#510,#511,#512);
#510 = CARTESIAN_POINT('',(-0.85,0.6,0.13));
#511 = DIRECTION('',(0.,0.,1.));
#512 = DIRECTION('',(0.,1.,0.));
#513 = ADVANCED_FACE('',(#514),#541,.F.);
#514 = FACE_BOUND('',#515,.T.);
#515 = EDGE_LOOP('',(#516,#525,#526,#535));
#516 = ORIENTED_EDGE('',*,*,#517,.T.);
#517 = EDGE_CURVE('',#518,#321,#520,.T.);
#518 = VERTEX_POINT('',#519);
#519 = CARTESIAN_POINT('',(-0.85,0.9,0.13));
#520 = CIRCLE('',#521,0.15);
#521 = AXIS2_PLACEMENT_3D('',#522,#523,#524);
#522 = CARTESIAN_POINT('',(-0.85,0.9,0.28));
#523 = DIRECTION('',(-1.,0.,0.));
#524 = DIRECTION('',(0.,1.,0.));
#525 = ORIENTED_EDGE('',*,*,#337,.T.);
#526 = ORIENTED_EDGE('',*,*,#527,.F.);
#527 = EDGE_CURVE('',#528,#330,#530,.T.);
#528 = VERTEX_POINT('',#529);
#529 = CARTESIAN_POINT('',(0.85,0.9,0.13));
#530 = CIRCLE('',#531,0.15);
#531 = AXIS2_PLACEMENT_3D('',#532,#533,#534);
#532 = CARTESIAN_POINT('',(0.85,0.9,0.28));
#533 = DIRECTION('',(-1.,7.273661547325E-16,0.));
#534 = DIRECTION('',(7.273661547325E-16,1.,0.));
#535 = ORIENTED_EDGE('',*,*,#536,.F.);
#536 = EDGE_CURVE('',#518,#528,#537,.T.);
#537 = LINE('',#538,#539);
#538 = CARTESIAN_POINT('',(-1.,0.9,0.13));
#539 = VECTOR('',#540,1.);
#540 = DIRECTION('',(1.,0.,0.));
#541 = CYLINDRICAL_SURFACE('',#542,0.15);
#542 = AXIS2_PLACEMENT_3D('',#543,#544,#545);
#543 = CARTESIAN_POINT('',(-1.,0.9,0.28));
#544 = DIRECTION('',(1.,0.,0.));
#545 = DIRECTION('',(0.,0.,-1.));
#546 = ADVANCED_FACE('',(#547),#574,.F.);
#547 = FACE_BOUND('',#548,.T.);
#548 = EDGE_LOOP('',(#549,#558,#559,#568));
#549 = ORIENTED_EDGE('',*,*,#550,.T.);
#550 = EDGE_CURVE('',#551,#352,#553,.T.);
#551 = VERTEX_POINT('',#552);
#552 = CARTESIAN_POINT('',(0.85,-0.9,0.13));
#553 = CIRCLE('',#554,0.15);
#554 = AXIS2_PLACEMENT_3D('',#555,#556,#557);
#555 = CARTESIAN_POINT('',(0.85,-0.9,0.28));
#556 = DIRECTION('',(1.,0.,0.));
#557 = DIRECTION('',(0.,-1.,0.));
#558 = ORIENTED_EDGE('',*,*,#368,.T.);
#559 = ORIENTED_EDGE('',*,*,#560,.F.);
#560 = EDGE_CURVE('',#561,#361,#563,.T.);
#561 = VERTEX_POINT('',#562);
#562 = CARTESIAN_POINT('',(-0.85,-0.9,0.13));
#563 = CIRCLE('',#564,0.15);
#564 = AXIS2_PLACEMENT_3D('',#565,#566,#567);
#565 = CARTESIAN_POINT('',(-0.85,-0.9,0.28));
#566 = DIRECTION('',(1.,-7.273661547325E-16,0.));
#567 = DIRECTION('',(-7.273661547325E-16,-1.,0.));
#568 = ORIENTED_EDGE('',*,*,#569,.F.);
#569 = EDGE_CURVE('',#551,#561,#570,.T.);
#570 = LINE('',#571,#572);
#571 = CARTESIAN_POINT('',(1.,-0.9,0.13));
#572 = VECTOR('',#573,1.);
#573 = DIRECTION('',(-1.,0.,0.));
#574 = CYLINDRICAL_SURFACE('',#575,0.15);
#575 = AXIS2_PLACEMENT_3D('',#576,#577,#578);
#576 = CARTESIAN_POINT('',(1.,-0.9,0.28));
#577 = DIRECTION('',(-1.,0.,0.));
#578 = DIRECTION('',(0.,0.,-1.));
#579 = ADVANCED_FACE('',(#580),#592,.T.);
#580 = FACE_BOUND('',#581,.F.);
#581 = EDGE_LOOP('',(#582,#583,#590,#591));
#582 = ORIENTED_EDGE('',*,*,#360,.F.);
#583 = ORIENTED_EDGE('',*,*,#584,.F.);
#584 = EDGE_CURVE('',#400,#361,#585,.T.);
#585 = CIRCLE('',#586,0.15);
#586 = AXIS2_PLACEMENT_3D('',#587,#588,#589);
#587 = CARTESIAN_POINT('',(-0.85,-0.6,0.28));
#588 = DIRECTION('',(0.,-0.,1.));
#589 = DIRECTION('',(-1.,0.,0.));
#590 = ORIENTED_EDGE('',*,*,#399,.T.);
#591 = ORIENTED_EDGE('',*,*,#382,.T.);
#592 = CYLINDRICAL_SURFACE('',#593,0.15);
#593 = AXIS2_PLACEMENT_3D('',#594,#595,#596);
#594 = CARTESIAN_POINT('',(-0.85,-0.6,0.13));
#595 = DIRECTION('',(0.,0.,1.));
#596 = DIRECTION('',(0.,-1.,0.));
#597 = ADVANCED_FACE('',(#598),#625,.F.);
#598 = FACE_BOUND('',#599,.T.);
#599 = EDGE_LOOP('',(#600,#609,#610,#619));
#600 = ORIENTED_EDGE('',*,*,#601,.T.);
#601 = EDGE_CURVE('',#602,#400,#604,.T.);
#602 = VERTEX_POINT('',#603);
#603 = CARTESIAN_POINT('',(-1.15,-0.6,0.13));
#604 = CIRCLE('',#605,0.15);
#605 = AXIS2_PLACEMENT_3D('',#606,#607,#608);
#606 = CARTESIAN_POINT('',(-1.15,-0.6,0.28));
#607 = DIRECTION('',(-0.,-1.,-0.));
#608 = DIRECTION('',(-1.,0.,0.));
#609 = ORIENTED_EDGE('',*,*,#416,.T.);
#610 = ORIENTED_EDGE('',*,*,#611,.F.);
#611 = EDGE_CURVE('',#612,#409,#614,.T.);
#612 = VERTEX_POINT('',#613);
#613 = CARTESIAN_POINT('',(-1.15,0.6,0.13));
#614 = CIRCLE('',#615,0.15);
#615 = AXIS2_PLACEMENT_3D('',#616,#617,#618);
#616 = CARTESIAN_POINT('',(-1.15,0.6,0.28));
#617 = DIRECTION('',(-6.123233995737E-17,-1.,-0.));
#618 = DIRECTION('',(-1.,6.123233995737E-17,0.));
#619 = ORIENTED_EDGE('',*,*,#620,.F.);
#620 = EDGE_CURVE('',#602,#612,#621,.T.);
#621 = LINE('',#622,#623);
#622 = CARTESIAN_POINT('',(-1.15,-0.75,0.13));
#623 = VECTOR('',#624,1.);
#624 = DIRECTION('',(0.,1.,0.));
#625 = CYLINDRICAL_SURFACE('',#626,0.15);
#626 = AXIS2_PLACEMENT_3D('',#627,#628,#629);
#627 = CARTESIAN_POINT('',(-1.15,-0.75,0.28));
#628 = DIRECTION('',(0.,1.,0.));
#629 = DIRECTION('',(0.,0.,-1.));
#630 = ADVANCED_FACE('',(#631),#643,.F.);
#631 = FACE_BOUND('',#632,.T.);
#632 = EDGE_LOOP('',(#633,#634,#641,#642));
#633 = ORIENTED_EDGE('',*,*,#550,.F.);
#634 = ORIENTED_EDGE('',*,*,#635,.T.);
#635 = EDGE_CURVE('',#551,#459,#636,.T.);
#636 = CIRCLE('',#637,0.3);
#637 = AXIS2_PLACEMENT_3D('',#638,#639,#640);
#638 = CARTESIAN_POINT('',(0.85,-0.6,0.13));
#639 = DIRECTION('',(-0.,0.,1.));
#640 = DIRECTION('',(0.,-1.,0.));
#641 = ORIENTED_EDGE('',*,*,#458,.T.);
#642 = ORIENTED_EDGE('',*,*,#431,.F.);
#643 = TOROIDAL_SURFACE('',#644,0.3,0.15);
#644 = AXIS2_PLACEMENT_3D('',#645,#646,#647);
#645 = CARTESIAN_POINT('',(0.85,-0.6,0.28));
#646 = DIRECTION('',(0.,0.,-1.));
#647 = DIRECTION('',(0.,-1.,0.));
#648 = ADVANCED_FACE('',(#649),#661,.F.);
#649 = FACE_BOUND('',#650,.T.);
#650 = EDGE_LOOP('',(#651,#652,#659,#660));
#651 = ORIENTED_EDGE('',*,*,#448,.F.);
#652 = ORIENTED_EDGE('',*,*,#653,.T.);
#653 = EDGE_CURVE('',#449,#528,#654,.T.);
#654 = CIRCLE('',#655,0.3);
#655 = AXIS2_PLACEMENT_3D('',#656,#657,#658);
#656 = CARTESIAN_POINT('',(0.85,0.6,0.13));
#657 = DIRECTION('',(0.,0.,1.));
#658 = DIRECTION('',(1.,0.,0.));
#659 = ORIENTED_EDGE('',*,*,#527,.T.);
#660 = ORIENTED_EDGE('',*,*,#482,.F.);
#661 = TOROIDAL_SURFACE('',#662,0.3,0.15);
#662 = AXIS2_PLACEMENT_3D('',#663,#664,#665);
#663 = CARTESIAN_POINT('',(0.85,0.6,0.28));
#664 = DIRECTION('',(0.,0.,-1.));
#665 = DIRECTION('',(1.,0.,0.));
#666 = ADVANCED_FACE('',(#667,#689),#723,.F.);
#667 = FACE_BOUND('',#668,.F.);
#668 = EDGE_LOOP('',(#669,#670,#671,#672,#673,#674,#681,#682));
#669 = ORIENTED_EDGE('',*,*,#569,.F.);
#670 = ORIENTED_EDGE('',*,*,#635,.T.);
#671 = ORIENTED_EDGE('',*,*,#467,.F.);
#672 = ORIENTED_EDGE('',*,*,#653,.T.);
#673 = ORIENTED_EDGE('',*,*,#536,.F.);
#674 = ORIENTED_EDGE('',*,*,#675,.T.);
#675 = EDGE_CURVE('',#518,#612,#676,.T.);
#676 = CIRCLE('',#677,0.3);
#677 = AXIS2_PLACEMENT_3D('',#678,#679,#680);
#678 = CARTESIAN_POINT('',(-0.85,0.6,0.13));
#679 = DIRECTION('',(0.,-0.,1.));
#680 = DIRECTION('',(0.,1.,0.));
#681 = ORIENTED_EDGE('',*,*,#620,.F.);
#682 = ORIENTED_EDGE('',*,*,#683,.T.);
#683 = EDGE_CURVE('',#602,#561,#684,.T.);
#684 = CIRCLE('',#685,0.3);
#685 = AXIS2_PLACEMENT_3D('',#686,#687,#688);
#686 = CARTESIAN_POINT('',(-0.85,-0.6,0.13));
#687 = DIRECTION('',(0.,-0.,1.));
#688 = DIRECTION('',(-1.,0.,0.));
#689 = FACE_BOUND('',#690,.F.);
#690 = EDGE_LOOP('',(#691,#701,#709,#717));
#691 = ORIENTED_EDGE('',*,*,#692,.T.);
#692 = EDGE_CURVE('',#693,#695,#697,.T.);
#693 = VERTEX_POINT('',#694);
#694 = CARTESIAN_POINT('',(-1.25,1.,0.13));
#695 = VERTEX_POINT('',#696);
#696 = CARTESIAN_POINT('',(1.25,1.,0.13));
#697 = LINE('',#698,#699);
#698 = CARTESIAN_POINT('',(-1.25,1.,0.13));
#699 = VECTOR('',#700,1.);
#700 = DIRECTION('',(1.,0.,0.));
#701 = ORIENTED_EDGE('',*,*,#702,.T.);
#702 = EDGE_CURVE('',#695,#703,#705,.T.);
#703 = VERTEX_POINT('',#704);
#704 = CARTESIAN_POINT('',(1.25,-1.,0.13));
#705 = LINE('',#706,#707);
#706 = CARTESIAN_POINT('',(1.25,1.,0.13));
#707 = VECTOR('',#708,1.);
#708 = DIRECTION('',(0.,-1.,0.));
#709 = ORIENTED_EDGE('',*,*,#710,.T.);
#710 = EDGE_CURVE('',#703,#711,#713,.T.);
#711 = VERTEX_POINT('',#712);
#712 = CARTESIAN_POINT('',(-1.25,-1.,0.13));
#713 = LINE('',#714,#715);
#714 = CARTESIAN_POINT('',(1.25,-1.,0.13));
#715 = VECTOR('',#716,1.);
#716 = DIRECTION('',(-1.,0.,0.));
#717 = ORIENTED_EDGE('',*,*,#718,.T.);
#718 = EDGE_CURVE('',#711,#693,#719,.T.);
#719 = LINE('',#720,#721);
#720 = CARTESIAN_POINT('',(-1.25,-1.,0.13));
#721 = VECTOR('',#722,1.);
#722 = DIRECTION('',(0.,1.,0.));
#723 = PLANE('',#724);
#724 = AXIS2_PLACEMENT_3D('',#725,#726,#727);
#725 = CARTESIAN_POINT('',(0.,0.,0.13));
#726 = DIRECTION('',(-0.,-0.,-1.));
#727 = DIRECTION('',(-1.,0.,0.));
#728 = ADVANCED_FACE('',(#729),#735,.F.);
#729 = FACE_BOUND('',#730,.T.);
#730 = EDGE_LOOP('',(#731,#732,#733,#734));
#731 = ORIENTED_EDGE('',*,*,#517,.F.);
#732 = ORIENTED_EDGE('',*,*,#675,.T.);
#733 = ORIENTED_EDGE('',*,*,#611,.T.);
#734 = ORIENTED_EDGE('',*,*,#500,.F.);
#735 = TOROIDAL_SURFACE('',#736,0.3,0.15);
#736 = AXIS2_PLACEMENT_3D('',#737,#738,#739);
#737 = CARTESIAN_POINT('',(-0.85,0.6,0.28));
#738 = DIRECTION('',(0.,0.,-1.));
#739 = DIRECTION('',(0.,1.,0.));
#740 = ADVANCED_FACE('',(#741),#747,.F.);
#741 = FACE_BOUND('',#742,.T.);
#742 = EDGE_LOOP('',(#743,#744,#745,#746));
#743 = ORIENTED_EDGE('',*,*,#601,.F.);
#744 = ORIENTED_EDGE('',*,*,#683,.T.);
#745 = ORIENTED_EDGE('',*,*,#560,.T.);
#746 = ORIENTED_EDGE('',*,*,#584,.F.);
#747 = TOROIDAL_SURFACE('',#748,0.3,0.15);
#748 = AXIS2_PLACEMENT_3D('',#749,#750,#751);
#749 = CARTESIAN_POINT('',(-0.85,-0.6,0.28));
#750 = DIRECTION('',(0.,0.,-1.));
#751 = DIRECTION('',(-1.,0.,0.));
#752 = ADVANCED_FACE('',(#753),#778,.T.);
#753 = FACE_BOUND('',#754,.T.);
#754 = EDGE_LOOP('',(#755,#763,#764,#772));
#755 = ORIENTED_EDGE('',*,*,#756,.T.);
#756 = EDGE_CURVE('',#757,#693,#759,.T.);
#757 = VERTEX_POINT('',#758);
#758 = CARTESIAN_POINT('',(-1.25,1.,0.));
#759 = LINE('',#760,#761);
#760 = CARTESIAN_POINT('',(-1.25,1.,0.));
#761 = VECTOR('',#762,1.);
#762 = DIRECTION('',(0.,0.,1.));
#763 = ORIENTED_EDGE('',*,*,#692,.T.);
#764 = ORIENTED_EDGE('',*,*,#765,.F.);
#765 = EDGE_CURVE('',#766,#695,#768,.T.);
#766 = VERTEX_POINT('',#767);
#767 = CARTESIAN_POINT('',(1.25,1.,0.));
#768 = LINE('',#769,#770);
#769 = CARTESIAN_POINT('',(1.25,1.,0.));
#770 = VECTOR('',#771,1.);
#771 = DIRECTION('',(0.,0.,1.));
#772 = ORIENTED_EDGE('',*,*,#773,.F.);
#773 = EDGE_CURVE('',#757,#766,#774,.T.);
#774 = LINE('',#775,#776);
#775 = CARTESIAN_POINT('',(-1.25,1.,0.));
#776 = VECTOR('',#777,1.);
#777 = DIRECTION('',(1.,0.,0.));
#778 = PLANE('',#779);
#779 = AXIS2_PLACEMENT_3D('',#780,#781,#782);
#780 = CARTESIAN_POINT('',(-1.25,1.,0.));
#781 = DIRECTION('',(0.,1.,0.));
#782 = DIRECTION('',(1.,0.,0.));
#783 = ADVANCED_FACE('',(#784),#802,.T.);
#784 = FACE_BOUND('',#785,.T.);
#785 = EDGE_LOOP('',(#786,#794,#795,#796));
#786 = ORIENTED_EDGE('',*,*,#787,.T.);
#787 = EDGE_CURVE('',#788,#711,#790,.T.);
#788 = VERTEX_POINT('',#789);
#789 = CARTESIAN_POINT('',(-1.25,-1.,0.));
#790 = LINE('',#791,#792);
#791 = CARTESIAN_POINT('',(-1.25,-1.,0.));
#792 = VECTOR('',#793,1.);
#793 = DIRECTION('',(0.,0.,1.));
#794 = ORIENTED_EDGE('',*,*,#718,.T.);
#795 = ORIENTED_EDGE('',*,*,#756,.F.);
#796 = ORIENTED_EDGE('',*,*,#797,.F.);
#797 = EDGE_CURVE('',#788,#757,#798,.T.);
#798 = LINE('',#799,#800);
#799 = CARTESIAN_POINT('',(-1.25,-1.,0.));
#800 = VECTOR('',#801,1.);
#801 = DIRECTION('',(0.,1.,0.));
#802 = PLANE('',#803);
#803 = AXIS2_PLACEMENT_3D('',#804,#805,#806);
#804 = CARTESIAN_POINT('',(-1.25,-1.,0.));
#805 = DIRECTION('',(-1.,0.,0.));
#806 = DIRECTION('',(0.,1.,0.));
#807 = ADVANCED_FACE('',(#808),#826,.T.);
#808 = FACE_BOUND('',#809,.T.);
#809 = EDGE_LOOP('',(#810,#811,#812,#820));
#810 = ORIENTED_EDGE('',*,*,#765,.T.);
#811 = ORIENTED_EDGE('',*,*,#702,.T.);
#812 = ORIENTED_EDGE('',*,*,#813,.F.);
#813 = EDGE_CURVE('',#814,#703,#816,.T.);
#814 = VERTEX_POINT('',#815);
#815 = CARTESIAN_POINT('',(1.25,-1.,0.));
#816 = LINE('',#817,#818);
#817 = CARTESIAN_POINT('',(1.25,-1.,0.));
#818 = VECTOR('',#819,1.);
#819 = DIRECTION('',(0.,0.,1.));
#820 = ORIENTED_EDGE('',*,*,#821,.F.);
#821 = EDGE_CURVE('',#766,#814,#822,.T.);
#822 = LINE('',#823,#824);
#823 = CARTESIAN_POINT('',(1.25,1.,0.));
#824 = VECTOR('',#825,1.);
#825 = DIRECTION('',(0.,-1.,0.));
#826 = PLANE('',#827);
#827 = AXIS2_PLACEMENT_3D('',#828,#829,#830);
#828 = CARTESIAN_POINT('',(1.25,1.,0.));
#829 = DIRECTION('',(1.,0.,0.));
#830 = DIRECTION('',(0.,-1.,0.));
#831 = ADVANCED_FACE('',(#832),#843,.T.);
#832 = FACE_BOUND('',#833,.T.);
#833 = EDGE_LOOP('',(#834,#835,#836,#837));
#834 = ORIENTED_EDGE('',*,*,#813,.T.);
#835 = ORIENTED_EDGE('',*,*,#710,.T.);
#836 = ORIENTED_EDGE('',*,*,#787,.F.);
#837 = ORIENTED_EDGE('',*,*,#838,.F.);
#838 = EDGE_CURVE('',#814,#788,#839,.T.);
#839 = LINE('',#840,#841);
#840 = CARTESIAN_POINT('',(1.25,-1.,0.));
#841 = VECTOR('',#842,1.);
#842 = DIRECTION('',(-1.,0.,0.));
#843 = PLANE('',#844);
#844 = AXIS2_PLACEMENT_3D('',#845,#846,#847);
#845 = CARTESIAN_POINT('',(1.25,-1.,0.));
#846 = DIRECTION('',(0.,-1.,0.));
#847 = DIRECTION('',(-1.,0.,0.));
#848 = ADVANCED_FACE('',(#849),#855,.T.);
#849 = FACE_BOUND('',#850,.T.);
#850 = EDGE_LOOP('',(#851,#852,#853,#854));
#851 = ORIENTED_EDGE('',*,*,#773,.T.);
#852 = ORIENTED_EDGE('',*,*,#821,.T.);
#853 = ORIENTED_EDGE('',*,*,#838,.T.);
#854 = ORIENTED_EDGE('',*,*,#797,.T.);
#855 = PLANE('',#856);
#856 = AXIS2_PLACEMENT_3D('',#857,#858,#859);
#857 = CARTESIAN_POINT('',(0.,0.,0.));
#858 = DIRECTION('',(-0.,-0.,-1.));
#859 = DIRECTION('',(-1.,0.,0.));
#860 = ( GEOMETRIC_REPRESENTATION_CONTEXT(3) 
GLOBAL_UNCERTAINTY_ASSIGNED_CONTEXT((#864)) GLOBAL_UNIT_ASSIGNED_CONTEXT
((#861,#862,#863)) REPRESENTATION_CONTEXT('Context #1',
  '3D Context with UNIT and UNCERTAINTY') );
#861 = ( LENGTH_UNIT() NAMED_UNIT(*) SI_UNIT(.MILLI.,.METRE.) );
#862 = ( NAMED_UNIT(*) PLANE_ANGLE_UNIT() SI_UNIT($,.RADIAN.) );
#863 = ( NAMED_UNIT(*) SI_UNIT($,.STERADIAN.) SOLID_ANGLE_UNIT() );
#864 = UNCERTAINTY_MEASURE_WITH_UNIT(LENGTH_MEASURE(1.E-07),#861,
  'distance_accuracy_value','confusion accuracy');
#865 = PRODUCT_RELATED_PRODUCT_CATEGORY('part',$,(#7));
#866 = MECHANICAL_DESIGN_GEOMETRIC_PRESENTATION_REPRESENTATION('',(#867,
    #875,#883,#890,#897,#904,#911,#918,#925,#932,#939,#946,#953,#960,
    #967,#974,#981,#988,#995,#1002,#1009,#1016,#1023,#1030,#1037,#1044,
    #1052,#1059,#1066,#1073,#1080,#1087,#1094),#860);
#867 = STYLED_ITEM('color',(#868),#17);
#868 = PRESENTATION_STYLE_ASSIGNMENT((#869));
#869 = SURFACE_STYLE_USAGE(.BOTH.,#870);
#870 = SURFACE_SIDE_STYLE('',(#871));
#871 = SURFACE_STYLE_FILL_AREA(#872);
#872 = FILL_AREA_STYLE('',(#873));
#873 = FILL_AREA_STYLE_COLOUR('',#874);
#874 = DRAUGHTING_PRE_DEFINED_COLOUR('black');
#875 = STYLED_ITEM('color',(#876),#50);
#876 = PRESENTATION_STYLE_ASSIGNMENT((#877));
#877 = SURFACE_STYLE_USAGE(.BOTH.,#878);
#878 = SURFACE_SIDE_STYLE('',(#879));
#879 = SURFACE_STYLE_FILL_AREA(#880);
#880 = FILL_AREA_STYLE('',(#881));
#881 = FILL_AREA_STYLE_COLOUR('',#882);
#882 = COLOUR_RGB('',0.507499992847,0.507499992847,0.507499992847);
#883 = STYLED_ITEM('color',(#884),#93);
#884 = PRESENTATION_STYLE_ASSIGNMENT((#885));
#885 = SURFACE_STYLE_USAGE(.BOTH.,#886);
#886 = SURFACE_SIDE_STYLE('',(#887));
#887 = SURFACE_STYLE_FILL_AREA(#888);
#888 = FILL_AREA_STYLE('',(#889));
#889 = FILL_AREA_STYLE_COLOUR('',#874);
#890 = STYLED_ITEM('color',(#891),#102);
#891 = PRESENTATION_STYLE_ASSIGNMENT((#892));
#892 = SURFACE_STYLE_USAGE(.BOTH.,#893);
#893 = SURFACE_SIDE_STYLE('',(#894));
#894 = SURFACE_STYLE_FILL_AREA(#895);
#895 = FILL_AREA_STYLE('',(#896));
#896 = FILL_AREA_STYLE_COLOUR('',#882);
#897 = STYLED_ITEM('color',(#898),#135);
#898 = PRESENTATION_STYLE_ASSIGNMENT((#899));
#899 = SURFACE_STYLE_USAGE(.BOTH.,#900);
#900 = SURFACE_SIDE_STYLE('',(#901));
#901 = SURFACE_STYLE_FILL_AREA(#902);
#902 = FILL_AREA_STYLE('',(#903));
#903 = FILL_AREA_STYLE_COLOUR('',#882);
#904 = STYLED_ITEM('color',(#905),#168);
#905 = PRESENTATION_STYLE_ASSIGNMENT((#906));
#906 = SURFACE_STYLE_USAGE(.BOTH.,#907);
#907 = SURFACE_SIDE_STYLE('',(#908));
#908 = SURFACE_STYLE_FILL_AREA(#909);
#909 = FILL_AREA_STYLE('',(#910));
#910 = FILL_AREA_STYLE_COLOUR('',#882);
#911 = STYLED_ITEM('color',(#912),#201);
#912 = PRESENTATION_STYLE_ASSIGNMENT((#913));
#913 = SURFACE_STYLE_USAGE(.BOTH.,#914);
#914 = SURFACE_SIDE_STYLE('',(#915));
#915 = SURFACE_STYLE_FILL_AREA(#916);
#916 = FILL_AREA_STYLE('',(#917));
#917 = FILL_AREA_STYLE_COLOUR('',#882);
#918 = STYLED_ITEM('color',(#919),#234);
#919 = PRESENTATION_STYLE_ASSIGNMENT((#920));
#920 = SURFACE_STYLE_USAGE(.BOTH.,#921);
#921 = SURFACE_SIDE_STYLE('',(#922));
#922 = SURFACE_STYLE_FILL_AREA(#923);
#923 = FILL_AREA_STYLE('',(#924));
#924 = FILL_AREA_STYLE_COLOUR('',#882);
#925 = STYLED_ITEM('color',(#926),#265);
#926 = PRESENTATION_STYLE_ASSIGNMENT((#927));
#927 = SURFACE_STYLE_USAGE(.BOTH.,#928);
#928 = SURFACE_SIDE_STYLE('',(#929));
#929 = SURFACE_STYLE_FILL_AREA(#930);
#930 = FILL_AREA_STYLE('',(#931));
#931 = FILL_AREA_STYLE_COLOUR('',#882);
#932 = STYLED_ITEM('color',(#933),#282);
#933 = PRESENTATION_STYLE_ASSIGNMENT((#934));
#934 = SURFACE_STYLE_USAGE(.BOTH.,#935);
#935 = SURFACE_SIDE_STYLE('',(#936));
#936 = SURFACE_STYLE_FILL_AREA(#937);
#937 = FILL_AREA_STYLE('',(#938));
#938 = FILL_AREA_STYLE_COLOUR('',#882);
#939 = STYLED_ITEM('color',(#940),#299);
#940 = PRESENTATION_STYLE_ASSIGNMENT((#941));
#941 = SURFACE_STYLE_USAGE(.BOTH.,#942);
#942 = SURFACE_SIDE_STYLE('',(#943));
#943 = SURFACE_STYLE_FILL_AREA(#944);
#944 = FILL_AREA_STYLE('',(#945));
#945 = FILL_AREA_STYLE_COLOUR('',#882);
#946 = STYLED_ITEM('color',(#947),#316);
#947 = PRESENTATION_STYLE_ASSIGNMENT((#948));
#948 = SURFACE_STYLE_USAGE(.BOTH.,#949);
#949 = SURFACE_SIDE_STYLE('',(#950));
#950 = SURFACE_STYLE_FILL_AREA(#951);
#951 = FILL_AREA_STYLE('',(#952));
#952 = FILL_AREA_STYLE_COLOUR('',#882);
#953 = STYLED_ITEM('color',(#954),#347);
#954 = PRESENTATION_STYLE_ASSIGNMENT((#955));
#955 = SURFACE_STYLE_USAGE(.BOTH.,#956);
#956 = SURFACE_SIDE_STYLE('',(#957));
#957 = SURFACE_STYLE_FILL_AREA(#958);
#958 = FILL_AREA_STYLE('',(#959));
#959 = FILL_AREA_STYLE_COLOUR('',#882);
#960 = STYLED_ITEM('color',(#961),#378);
#961 = PRESENTATION_STYLE_ASSIGNMENT((#962));
#962 = SURFACE_STYLE_USAGE(.BOTH.,#963);
#963 = SURFACE_SIDE_STYLE('',(#964));
#964 = SURFACE_STYLE_FILL_AREA(#965);
#965 = FILL_AREA_STYLE('',(#966));
#966 = FILL_AREA_STYLE_COLOUR('',#882);
#967 = STYLED_ITEM('color',(#968),#395);
#968 = PRESENTATION_STYLE_ASSIGNMENT((#969));
#969 = SURFACE_STYLE_USAGE(.BOTH.,#970);
#970 = SURFACE_SIDE_STYLE('',(#971));
#971 = SURFACE_STYLE_FILL_AREA(#972);
#972 = FILL_AREA_STYLE('',(#973));
#973 = FILL_AREA_STYLE_COLOUR('',#882);
#974 = STYLED_ITEM('color',(#975),#426);
#975 = PRESENTATION_STYLE_ASSIGNMENT((#976));
#976 = SURFACE_STYLE_USAGE(.BOTH.,#977);
#977 = SURFACE_SIDE_STYLE('',(#978));
#978 = SURFACE_STYLE_FILL_AREA(#979);
#979 = FILL_AREA_STYLE('',(#980));
#980 = FILL_AREA_STYLE_COLOUR('',#882);
#981 = STYLED_ITEM('color',(#982),#444);
#982 = PRESENTATION_STYLE_ASSIGNMENT((#983));
#983 = SURFACE_STYLE_USAGE(.BOTH.,#984);
#984 = SURFACE_SIDE_STYLE('',(#985));
#985 = SURFACE_STYLE_FILL_AREA(#986);
#986 = FILL_AREA_STYLE('',(#987));
#987 = FILL_AREA_STYLE_COLOUR('',#882);
#988 = STYLED_ITEM('color',(#989),#477);
#989 = PRESENTATION_STYLE_ASSIGNMENT((#990));
#990 = SURFACE_STYLE_USAGE(.BOTH.,#991);
#991 = SURFACE_SIDE_STYLE('',(#992));
#992 = SURFACE_STYLE_FILL_AREA(#993);
#993 = FILL_AREA_STYLE('',(#994));
#994 = FILL_AREA_STYLE_COLOUR('',#882);
#995 = STYLED_ITEM('color',(#996),#495);
#996 = PRESENTATION_STYLE_ASSIGNMENT((#997));
#997 = SURFACE_STYLE_USAGE(.BOTH.,#998);
#998 = SURFACE_SIDE_STYLE('',(#999));
#999 = SURFACE_STYLE_FILL_AREA(#1000);
#1000 = FILL_AREA_STYLE('',(#1001));
#1001 = FILL_AREA_STYLE_COLOUR('',#882);
#1002 = STYLED_ITEM('color',(#1003),#513);
#1003 = PRESENTATION_STYLE_ASSIGNMENT((#1004));
#1004 = SURFACE_STYLE_USAGE(.BOTH.,#1005);
#1005 = SURFACE_SIDE_STYLE('',(#1006));
#1006 = SURFACE_STYLE_FILL_AREA(#1007);
#1007 = FILL_AREA_STYLE('',(#1008));
#1008 = FILL_AREA_STYLE_COLOUR('',#882);
#1009 = STYLED_ITEM('color',(#1010),#546);
#1010 = PRESENTATION_STYLE_ASSIGNMENT((#1011));
#1011 = SURFACE_STYLE_USAGE(.BOTH.,#1012);
#1012 = SURFACE_SIDE_STYLE('',(#1013));
#1013 = SURFACE_STYLE_FILL_AREA(#1014);
#1014 = FILL_AREA_STYLE('',(#1015));
#1015 = FILL_AREA_STYLE_COLOUR('',#882);
#1016 = STYLED_ITEM('color',(#1017),#579);
#1017 = PRESENTATION_STYLE_ASSIGNMENT((#1018));
#1018 = SURFACE_STYLE_USAGE(.BOTH.,#1019);
#1019 = SURFACE_SIDE_STYLE('',(#1020));
#1020 = SURFACE_STYLE_FILL_AREA(#1021);
#1021 = FILL_AREA_STYLE('',(#1022));
#1022 = FILL_AREA_STYLE_COLOUR('',#882);
#1023 = STYLED_ITEM('color',(#1024),#597);
#1024 = PRESENTATION_STYLE_ASSIGNMENT((#1025));
#1025 = SURFACE_STYLE_USAGE(.BOTH.,#1026);
#1026 = SURFACE_SIDE_STYLE('',(#1027));
#1027 = SURFACE_STYLE_FILL_AREA(#1028);
#1028 = FILL_AREA_STYLE('',(#1029));
#1029 = FILL_AREA_STYLE_COLOUR('',#882);
#1030 = STYLED_ITEM('color',(#1031),#630);
#1031 = PRESENTATION_STYLE_ASSIGNMENT((#1032));
#1032 = SURFACE_STYLE_USAGE(.BOTH.,#1033);
#1033 = SURFACE_SIDE_STYLE('',(#1034));
#1034 = SURFACE_STYLE_FILL_AREA(#1035);
#1035 = FILL_AREA_STYLE('',(#1036));
#1036 = FILL_AREA_STYLE_COLOUR('',#882);
#1037 = STYLED_ITEM('color',(#1038),#648);
#1038 = PRESENTATION_STYLE_ASSIGNMENT((#1039));
#1039 = SURFACE_STYLE_USAGE(.BOTH.,#1040);
#1040 = SURFACE_SIDE_STYLE('',(#1041));
#1041 = SURFACE_STYLE_FILL_AREA(#1042);
#1042 = FILL_AREA_STYLE('',(#1043));
#1043 = FILL_AREA_STYLE_COLOUR('',#882);
#1044 = STYLED_ITEM('color',(#1045),#666);
#1045 = PRESENTATION_STYLE_ASSIGNMENT((#1046));
#1046 = SURFACE_STYLE_USAGE(.BOTH.,#1047);
#1047 = SURFACE_SIDE_STYLE('',(#1048));
#1048 = SURFACE_STYLE_FILL_AREA(#1049);
#1049 = FILL_AREA_STYLE('',(#1050));
#1050 = FILL_AREA_STYLE_COLOUR('',#1051);
#1051 = DRAUGHTING_PRE_DEFINED_COLOUR('white');
#1052 = STYLED_ITEM('color',(#1053),#728);
#1053 = PRESENTATION_STYLE_ASSIGNMENT((#1054));
#1054 = SURFACE_STYLE_USAGE(.BOTH.,#1055);
#1055 = SURFACE_SIDE_STYLE('',(#1056));
#1056 = SURFACE_STYLE_FILL_AREA(#1057);
#1057 = FILL_AREA_STYLE('',(#1058));
#1058 = FILL_AREA_STYLE_COLOUR('',#882);
#1059 = STYLED_ITEM('color',(#1060),#740);
#1060 = PRESENTATION_STYLE_ASSIGNMENT((#1061));
#1061 = SURFACE_STYLE_USAGE(.BOTH.,#1062);
#1062 = SURFACE_SIDE_STYLE('',(#1063));
#1063 = SURFACE_STYLE_FILL_AREA(#1064);
#1064 = FILL_AREA_STYLE('',(#1065));
#1065 = FILL_AREA_STYLE_COLOUR('',#882);
#1066 = STYLED_ITEM('color',(#1067),#752);
#1067 = PRESENTATION_STYLE_ASSIGNMENT((#1068));
#1068 = SURFACE_STYLE_USAGE(.BOTH.,#1069);
#1069 = SURFACE_SIDE_STYLE('',(#1070));
#1070 = SURFACE_STYLE_FILL_AREA(#1071);
#1071 = FILL_AREA_STYLE('',(#1072));
#1072 = FILL_AREA_STYLE_COLOUR('',#882);
#1073 = STYLED_ITEM('color',(#1074),#783);
#1074 = PRESENTATION_STYLE_ASSIGNMENT((#1075));
#1075 = SURFACE_STYLE_USAGE(.BOTH.,#1076);
#1076 = SURFACE_SIDE_STYLE('',(#1077));
#1077 = SURFACE_STYLE_FILL_AREA(#1078);
#1078 = FILL_AREA_STYLE('',(#1079));
#1079 = FILL_AREA_STYLE_COLOUR('',#882);
#1080 = STYLED_ITEM('color',(#1081),#807);
#1081 = PRESENTATION_STYLE_ASSIGNMENT((#1082));
#1082 = SURFACE_STYLE_USAGE(.BOTH.,#1083);
#1083 = SURFACE_SIDE_STYLE('',(#1084));
#1084 = SURFACE_STYLE_FILL_AREA(#1085);
#1085 = FILL_AREA_STYLE('',(#1086));
#1086 = FILL_AREA_STYLE_COLOUR('',#882);
#1087 = STYLED_ITEM('color',(#1088),#831);
#1088 = PRESENTATION_STYLE_ASSIGNMENT((#1089));
#1089 = SURFACE_STYLE_USAGE(.BOTH.,#1090);
#1090 = SURFACE_SIDE_STYLE('',(#1091));
#1091 = SURFACE_STYLE_FILL_AREA(#1092);
#1092 = FILL_AREA_STYLE('',(#1093));
#1093 = FILL_AREA_STYLE_COLOUR('',#882);
#1094 = STYLED_ITEM('color',(#1095),#848);
#1095 = PRESENTATION_STYLE_ASSIGNMENT((#1096));
#1096 = SURFACE_STYLE_USAGE(.BOTH.,#1097);
#1097 = SURFACE_SIDE_STYLE('',(#1098));
#1098 = SURFACE_STYLE_FILL_AREA(#1099);
#1099 = FILL_AREA_STYLE('',(#1100));
#1100 = FILL_AREA_STYLE_COLOUR('',#882);
ENDSEC;
END-ISO-10303-21;
